info face="CAT North Licht" size=120 bold=0 italic=0 charset="" unicode=1 stretchH=100 smooth=0 aa=1 padding=0,0,0,0 spacing=1,1 outline=0
common lineHeight=120 base=94 scaleW=256 scaleH=256 pages=1 packed=0 alphaChnl=0 redChnl=0 greenChnl=0 blueChnl=0
page id=0 file="Cat_North_Licht_Numbers_0.png"
chars count=10
char id=48   x=62    y=68    width=60    height=67    xoffset=4     yoffset=28    xadvance=68    page=0  chnl=15
char id=49   x=61    y=136   width=15    height=67    xoffset=4     yoffset=28    xadvance=23    page=0  chnl=15
char id=50   x=0     y=0     width=61    height=67    xoffset=3     yoffset=28    xadvance=68    page=0  chnl=15
char id=51   x=62    y=0     width=61    height=67    xoffset=3     yoffset=28    xadvance=68    page=0  chnl=15
char id=52   x=123   y=68    width=60    height=67    xoffset=4     yoffset=28    xadvance=68    page=0  chnl=15
char id=53   x=124   y=0     width=61    height=67    xoffset=3     yoffset=28    xadvance=68    page=0  chnl=15
char id=54   x=186   y=0     width=61    height=67    xoffset=4     yoffset=28    xadvance=68    page=0  chnl=15
char id=55   x=184   y=68    width=60    height=67    xoffset=4     yoffset=28    xadvance=68    page=0  chnl=15
char id=56   x=0     y=136   width=60    height=67    xoffset=4     yoffset=28    xadvance=68    page=0  chnl=15
char id=57   x=0     y=68    width=61    height=67    xoffset=3     yoffset=28    xadvance=68    page=0  chnl=15
